<svg xmlns="http://www.w3.org/2000/svg" width="14.813" height="8" viewBox="0 0 14.813 8">
  <path id="arr" d="M125.573,7,118.722.168a.574.574,0,1,0-.811.813l6.444,6.426-6.444,6.426a.574.574,0,0,0,.811.813l6.851-6.832a.574.574,0,0,0,0-.813Z" transform="translate(14.813 -117.742) rotate(90)" fill="#78909c"/>
</svg>
