<?xml version="1.0" encoding="utf-8"?>
<!-- Generator: Adobe Illustrator 19.2.1, SVG Export Plug-In . SVG Version: 6.00 Build 0)  -->
<svg version="1.1" id="Layer_1" xmlns="http://www.w3.org/2000/svg" xmlns:xlink="http://www.w3.org/1999/xlink" x="0px" y="0px"
	 viewBox="0 0 1222 150.2" style="enable-background:new 0 0 1222 150.2;" xml:space="preserve">
<style type="text/css">
	.st0{filter:url(#photo-1560448205-4d9b3e6bb6db);}
	.st1{fill:#FFFFFF;}
	.st2{fill:#233862;}
	.st3{fill:#FFB27D;}
	.st4{fill:#E50019;}
	.st5{fill:#2B478B;}
	.st6{fill:#1D1F3A;}
	.st7{fill:#ED975D;}
	.st8{fill:#9CC4FF;}
	.st9{fill:#7DA6EF;}
	.st10{fill:#B5061F;}
	.st11{fill:#EFEFEF;}
	.st12{fill:#D4ECFF;}
	.st13{fill:#5793CE;}
	.st14{fill:#396CAA;}
	.st15{fill:#D3008D;}
	.st16{fill:#EF0627;}
	.st17{fill:#F74164;}
	.st18{fill:#86B8E0;}
	.st19{fill:#173D7A;}
	.st20{fill:#274F89;}
	.st21{fill:#AD0019;}
</style>
<filter  filterUnits="userSpaceOnUse" height="160" id="photo-1560448205-4d9b3e6bb6db" width="1282" x="0" y="0">
	<feOffset  dy="5" input="SourceAlpha"></feOffset>
	<feGaussianBlur  result="blur" stdDeviation="10"></feGaussianBlur>
	<feFlood  flood-color="#1d1f3a" flood-opacity="0.102"></feFlood>
	<feComposite  in2="blur" operator="in"></feComposite>
	<feComposite  in="SourceGraphic" operator="over"></feComposite>
</filter>
<g id="blog" transform="translate(-526 -3001)">
	<g id="blogblock" transform="translate(0 1404)">
		<g transform="matrix(1, 0, 0, 1, 526, 1597)" class="st0">
			<path id="photo-1560448205-4d9b3e6bb6db-2_1_" class="st1" d="M5,0h1212c2.8,0,5,2.2,5,5v90c0,2.8-2.2,5-5,5H5c-2.8,0-5-2.2-5-5
				V5C0,2.2,2.2,0,5,0z"/>
		</g>
		<g id="text" transform="translate(742 -2470)">
		</g>
		<g id="woman" transform="translate(582.96 1633.049)">
			<path id="Path_3512" class="st2" d="M25.7,55.9c-1.7,3.3-4.2,6.2-7.2,8.4L1,64.4C1,64.4,28.1,51.4,25.7,55.9z"/>
			<g id="Group_553">
				<path id="Path_3513" class="st3" d="M13.2,100.8c-0.4,0.5-0.5,1.1-0.3,1.7l0,0c0.4,1.1,1.8,2.4,3.4,3.6c0.2,0.2,0.4,0.3,0.5,0.4
					l0.1,0.1l0.1,0.1c1.5,1.3,1,1.7,3.7,4.4c3.1,3.1,5.2,3.1,5.8,2.8c0.5-0.3-0.6-1.9-1.7-3.8c-0.1-0.1-0.1-0.2-0.2-0.3
					c-0.2-0.2-0.3-0.5-0.5-0.7c-1.4-2.2-1.1-3.3-0.8-6.7c0.2-2.7,4-15.4,4-15.4l-5.8-0.9c0,0-1.6,10-3.5,11.6
					c-1,0.8-2.2,0.9-3.1,1.5c-0.1,0-0.1,0.1-0.2,0.1C14.2,99.9,13.7,100.3,13.2,100.8z"/>
				<path id="Path_3514" class="st4" d="M13.2,100.8c-0.4,0.5-0.5,1.1-0.3,1.7l0,0c0.9,1.4,2,2.6,3.4,3.6c0.2,0.2,0.4,0.3,0.5,0.5
					l0.1,0.1l0.1,0.1c1.5,1.3,1,1.7,3.7,4.4c3.1,3.1,5.2,3.1,5.8,2.8c0.5-0.3-0.6-1.9-1.7-3.8c-2.1-0.8-4-2.1-5.5-3.9
					c-1.9-2.3-3.2-5.3-4.4-7c-0.1,0-0.1,0.1-0.2,0.1C14.2,99.9,13.7,100.3,13.2,100.8z"/>
				<path id="Path_3515" class="st3" d="M60,96.2c0.4,1.8,2.9,1.4,5.8,0.7c2.8-0.8,2.2,0.1,6.2-0.4c4.1-0.5,5.3-2.1,5.4-2.7
					c0.1-0.5-1.9-0.7-4.1-0.9c-0.3,0-0.5-0.1-0.8-0.1c-2.4-0.3-4.3-1.8-6.5-3c-2.1-1.2-5.3-6.1-5.3-6.1l-5.6,0.6c0,0,3,4.4,4.2,6.3
					c0.6,1.2,0.8,2.5,0.6,3.8C59.9,95,59.9,95.6,60,96.2z"/>
				<path id="Path_3516" class="st4" d="M65.8,96.9c2.8-0.8,2.2,0.1,6.2-0.4c4.1-0.5,5.3-2.1,5.4-2.7c0.1-0.5-1.9-0.7-4.1-0.9l0,0
					c-1.7,1.2-3.7,1.8-5.8,1.9c-2.8,0.1-5.7-0.6-7.6-0.5c-0.1,0.6,0,1.3,0.1,1.9C60.4,98,63,97.7,65.8,96.9z"/>
				<path id="Path_3517" class="st2" d="M37.9,61L33,75.1l-6.4,18.5c-1.2,0.1-2.4,0-3.6-0.3c-1.2-0.4-2.4-0.9-3.5-1.6
					c0,0,1.5-19.7,4.8-31.1c0.5-2.4,1.5-4.6,2.9-6.6C32.5,47.4,37.9,61,37.9,61z"/>
				<path id="Path_3518" class="st5" d="M32.2,38.8c-3.4-1-13.2,0.6-22.9,2.7l-2.1-3.3L-14,36.9c0,0-6.7,15.6-2.7,25.4
					c0.5,1.4,2,2.3,3.5,2.2h1.2c0,0,11.8-0.1,15.9-0.1c10.5-0.2,22.1-7.7,23.6-8c2.5-0.5,3.6,4.4,6.2,9.6s23.8,22.7,23.8,22.7
					c1.5,0,3-0.2,4.5-0.6c0.7-0.3,1.4-0.7,1.9-1.3C63.9,86.8,40,41.1,32.2,38.8z"/>
				<path id="Path_3519" class="st6" d="M3.7-23.9c-1.3-0.7-2.7-1-4.1-1c-0.7,0-1.3,0-2-0.1c-8-0.9-12.6,10.8-12.8,14.4
					C-15.6-4.1-19-3-23.8,1.1c-9.5,8.4-6.5,17.8-1.1,21.2c3.2,2.1,8.8-0.2,8.8-0.2C-16.1,22.2-1,13.3,6.5,9
					C17.7,7.2,8.3-21.3,3.7-23.9z"/>
				<path id="Path_3520" class="st3" d="M0.1,5.6c0,0-3.7,1.4-6.2,0.3c-2.4-1-4.2-4.8-4.2-4.8c1.1-0.1,2.2-1,3-7.2l0.5,0.2l7.7,2.6
					c0,0-0.5,2.5-0.8,4.8C-0.2,3.5-0.3,5.4,0.1,5.6z"/>
				<path id="Path_3521" class="st7" d="M0.9-3.3c0,0-0.5,2.5-0.8,4.8c-4.4-0.7-6.2-5.1-6.9-7.4L0.9-3.3z"/>
				<path id="Path_3522" class="st3" d="M2.1-0.9c0,0-10.5-1.2-9.7-7.7s0.1-11.1,6.8-10.6s7.7,3.1,8,5.4C7.4-11.6,4.8-0.7,2.1-0.9z"
					/>
				<path id="Path_3523" class="st6" d="M6.7-17.4c0,0-6.6,5.9-11.1,6.5c-4.6,0.6-6.3-0.9-6.3-0.9c1.8-1.7,3.2-3.7,4.2-5.9
					c0.4-1.1,1.4-1.8,2.6-1.9C-0.7-20,5.5-20.2,6.7-17.4z"/>
				<path id="Path_3524" class="st6" d="M2.5-17.8c1.2,1.1,2.2,2.3,3,3.7C6.3-12,6.4-9.6,6-7.4c0,0,3.4-6.9,1.3-10.1
					C5.2-20.9,2.5-17.8,2.5-17.8z"/>
				<path id="Path_3525" class="st8" d="M9.2,20.9c0.1,21.2,0.2,16.8-2,18.8c-0.5,0.5-2.1,0.8-4.2,1c-6.5,0.6-17.9-0.3-18.4-1.5
					c-1.6-4.1-0.5-5.4-1.9-11.8c-0.1-0.7-0.3-1.5-0.5-2.2c-1.1-4.4-2.2-5.8,1.4-12.9c3.2-6.4,6.6-11.7,6.9-11.5
					c9,5.1,9.6,0.6,9.6,0.6S9.2,10.5,9.2,20.9z"/>
				<path id="Path_3526" class="st5" d="M33,75.1l-6.4,18.5c-1.2,0.1-2.4,0-3.6-0.3c-1.2-0.4-2.4-0.9-3.5-1.6c0,0,1.5-19.7,4.8-31.1
					L33,75.1z"/>
				<path id="Path_3527" class="st8" d="M0.1,1.5c0,0,9.1,1.4,10.3,5.3c1.1,3.9,7.9,26.8,7.9,26.8s-4.6,0.9-6.8-1.2
					S3.7,12.7,3.7,12.7L0.1,1.5z"/>
				<path id="Path_3528" class="st9" d="M3,40.7c-6.5,0.6-17.9-0.3-18.4-1.5c-1.6-4.1-0.5-5.4-1.9-11.8l3-8.9c0,0-0.3,9.8,2.6,12.4
					c2.9,2.5,12,4.8,13.4,6.9C2.3,38.7,2.8,39.7,3,40.7z"/>
				<path id="Path_3529" class="st3" d="M-4.5,36.7c0,0,6.4-1.6,7.4-1c1.5,0.9,2.8,2,3.9,3.3c0.3,0.7-2.3-0.5-3.2-0.7
					c-0.9,0.1-1.9,0.3-2.7,0.7c-1.5,0.7-3.2,0.9-4.9,0.6L-4.5,36.7z"/>
				<path id="Path_3530" class="st8" d="M-9.5,0.9c0,0-8.6,0.7-11.5,4.9c-4.1,5.9-11.9,31-7.1,34.3c5.4,3.6,24.5,0.5,24.5,0.5
					s0.6-3-0.3-4.4s-15.3-3.5-16-4.1c-0.7-0.6,8-13.1,8-15.1C-12,15-9.5,0.9-9.5,0.9z"/>
				<path id="Path_3531" class="st3" d="M3.3,37.5c0.5,0.7,1.1,1.3,1.8,1.9c0.2,0.1,0.5,0.2,0.7,0.1l-0.9-1.6L3.3,37.5z"/>
				<path id="Path_3532" class="st3" d="M2.9,35.7l3.9,1.8c-0.1,0.2-0.4,0.3-0.6,0.3c-0.6-0.1-1.1-0.2-1.7-0.4L2.9,35.7z"/>
			</g>
			<g id="Group_555">
				<g id="Group_554">
					<path id="Path_3533" class="st4" d="M5.1,42.1L36,41.5l8.9-23.4L14,18.8L5.1,42.1z"/>
					<path id="Path_3534" class="st10" d="M36.4,40.5l-40.8,0.9v0.9L36,41.5L36.4,40.5z"/>
				</g>
				<path id="Path_3535" class="st1" d="M28,30c0.2-0.6-0.1-1.2-0.7-1.4c-0.1,0-0.2-0.1-0.4-0.1C26,28.6,25.3,29.2,25,30
					c-0.2,0.6,0.1,1.2,0.7,1.4c0.1,0,0.2,0.1,0.4,0.1C27,31.5,27.8,30.9,28,30z"/>
			</g>
		</g>
	</g>
	<g id="laptop_books" transform="translate(1616.009 3036.028)">
		<path id="Path_3536" class="st11" d="M109.4,28.9l-56-32.3L17,21.5L69.9,52c1.1,0.6,2.4,0.6,3.4,0l36.1-20.8
			c0.6-0.3,0.9-1,0.6-1.6C109.9,29.3,109.7,29.1,109.4,28.9z"/>
		<g id="Group_562" transform="translate(64.229 83.937)">
			<path id="Path_3537" class="st11" d="M-24.2-0.4L8.4-19.2c0.7-0.4,0.6-1.1-0.2-1.6l0,0c-0.9-0.5-1.9-0.5-2.8-0.1L-27.1-2.1
				c-0.7,0.4-0.6,1.1,0.2,1.6l0,0C-26.1-0.1-25.1-0.1-24.2-0.4z"/>
			<g id="Group_561">
				<path id="Path_3538" class="st12" d="M10.8-25L10.8-25c0,0-0.1,0-0.1,0l-1.5,0.3l0.6,1.1l1.1-1.2C10.8-24.9,10.8-24.9,10.8-25z"
					/>
				<g id="Group_556" transform="translate(18.639 0.124)">
					<path id="Path_3539" class="st13" d="M-8.5-24.4c0-0.2-0.1-0.5-0.3-0.6c-0.1,0-0.1,0-0.2,0c-1.8,0-3.5,0.4-5.1,1.3l-0.1,0.1
						l1.9,3.3l0.6-0.4c1.2-0.8,2.2-1.8,3-3.1l0.3-0.4C-8.5-24.2-8.5-24.2-8.5-24.4z"/>
					<path id="Path_3540" class="st12" d="M-12-21.2c-0.1-0.9-0.5-1.8-1.3-2.3c-0.7-0.4-1.4-0.1-1.4,0.8c0.1,0.9,0.5,1.8,1.3,2.3
						C-12.6-20-12-20.3-12-21.2z"/>
					<path id="Path_3541" class="st12" d="M-27.3-11.4l15-9l-1.9-3.3l-15.4,8.4L-27.3-11.4z"/>
					<path id="Path_3542" class="st12" d="M-26.9-12.4c-0.1-1.1-0.6-2.1-1.6-2.8c-0.9-0.5-1.6-0.1-1.6,0.9c0.1,1.1,0.6,2.1,1.6,2.8
						C-27.6-10.9-26.9-11.4-26.9-12.4z"/>
				</g>
				<g id="Group_557" transform="translate(2.82 10.161)">
					<path id="Path_3543" class="st12" d="M-11.7-22c-0.1-1.1-0.6-2.1-1.6-2.8c-0.9-0.5-1.6-0.1-1.6,0.9c0.1,1.1,0.6,2.1,1.6,2.8
						C-12.4-20.6-11.7-21-11.7-22z"/>
					<path id="Path_3691" class="st12" d="M-29.5-16.2l15.2-8.7l2.2,3.9l-15.2,8.7L-29.5-16.2z"/>
					<path id="Path_3544" class="st12" d="M-26.9-13.3c-0.1-1.1-0.6-2.1-1.6-2.8c-0.9-0.5-1.6-0.1-1.6,0.9c0.1,1.1,0.6,2.1,1.6,2.8
						C-27.5-11.9-26.9-12.3-26.9-13.3z"/>
					<path id="Path_3545" class="st14" d="M-27.4-13.6c-0.1-0.7-0.5-1.3-1.1-1.7c-0.6-0.3-1-0.1-1,0.5c0.1,0.7,0.5,1.3,1.1,1.7
						C-27.8-12.8-27.4-13.1-27.4-13.6z"/>
				</g>
				<g id="Group_558" transform="translate(17.876 9.546)">
					<path id="Path_3546" class="st13" d="M-26-21.8c-0.1-1.1-0.6-2.1-1.6-2.8c-0.9-0.5-1.6-0.1-1.6,0.9c0.1,1.1,0.6,2.1,1.6,2.8
						C-26.7-20.4-26-20.8-26-21.8z"/>
					<path id="Path_3547" class="st1" d="M-26-21.8c-0.1-1.1-0.6-2.1-1.6-2.8c-0.3-0.2-0.6-0.3-0.9-0.2c0.4-0.3,0.9-0.3,1.3,0
						c0.9,0.6,1.5,1.6,1.6,2.8c0.1,0.5-0.2,0.9-0.6,1.1C-26.1-21.2-26-21.5-26-21.8z"/>
					<path id="Path_3692" class="st13" d="M-29.5-24.2l0.8-0.5l2.2,3.9l-0.8,0.5L-29.5-24.2z"/>
					<path id="Path_3548" class="st12" d="M-26.9-21.4c-0.1-1.1-0.6-2.1-1.6-2.8c-0.9-0.5-1.6-0.1-1.6,0.9c0.1,1.1,0.6,2.1,1.6,2.8
						C-27.5-19.9-26.9-20.4-26.9-21.4z"/>
				</g>
				<g id="Group_559" transform="translate(0 20.241)">
					<path id="Path_3549" class="st4" d="M-25.3-23.3l-1-1.7l-3.2,1.8c-0.4,0.2-0.6,0.8-0.4,1.2c0,0,0,0,0,0.1l0,0
						c0.2,0.4,0.8,0.6,1.3,0.4c0,0,0,0,0.1,0L-25.3-23.3z"/>
					<path id="Path_3550" class="st4" d="M-25.1-23.7c0-0.5-0.3-0.9-0.7-1.2c-0.4-0.2-0.7,0-0.7,0.4c0,0.5,0.3,0.9,0.7,1.2
						C-25.4-23.1-25.1-23.3-25.1-23.7z"/>
				</g>
				<g id="Group_560" transform="translate(4.177 10.981)">
					<path id="Path_3551" class="st13" d="M-25.7-20.3l-0.5-0.3c-0.3-0.2-0.7-0.1-1,0.1l-1.7,0.9c-0.3,0.2-0.5,0.6-0.6,1v0.8
						c0,0.2-0.1,0.3-0.2,0.4l0,0.4l-0.4-0.3l0,0c-0.1-0.1-0.1-0.1-0.1-0.2v-0.8c0.1-0.8,0.5-1.6,1.2-2l1.7-0.9
						c0.4-0.3,1-0.4,1.4-0.1l0.5,0.3c0.3,0.2,0.7,0.1,1-0.1l6.7-3.8c0.1,0,0.1,0,0.2,0l0,0l0.4,0.3l-0.3,0.1c0,0.1-0.1,0.3-0.3,0.3
						l-6.7,3.8C-24.6-20.1-25.2-20.1-25.7-20.3z"/>
					<path id="Path_3552" class="st13" d="M-25.8-20.4c-0.3-0.2-0.7-0.1-1,0.1l-1.7,0.9c-0.3,0.2-0.5,0.6-0.6,1v0.8
						c0,0.2-0.1,0.4-0.3,0.5c-0.2,0.1-0.3,0-0.3-0.2V-18c0.1-0.8,0.5-1.6,1.2-2l1.7-0.9c0.4-0.3,1-0.4,1.4-0.1l0.5,0.3
						c0.3,0.2,0.7,0.1,1-0.1l6.7-3.8c0.2-0.1,0.3,0,0.3,0.2c0,0.2-0.1,0.4-0.3,0.5l-6.7,3.8c-0.4,0.3-1,0.4-1.4,0.1L-25.8-20.4z"/>
				</g>
			</g>
			<path id="Path_3553" class="st11" d="M-27.9,0.9l3.1-1.7c0.4-0.2,0.3-0.6-0.1-0.8l0,0c-0.4-0.2-1-0.3-1.4,0L-29.5,0
				c-0.4,0.2-0.3,0.6,0.1,0.8l0,0C-28.9,1.1-28.4,1.1-27.9,0.9z"/>
		</g>
		<g id="Group_567" transform="translate(57.378 18.895)">
			<g id="Group_563">
				<path id="Path_3554" class="st4" d="M10.9-22.3c0-2.5-1.7-3.4-3.8-2.2l-36,20.7c-0.6,0.4-1,1.1-1.1,1.8c0,0.7,0.5,0.9,1.1,0.6
					l36-20.7c1-0.6,1.7-0.1,1.7,1v4c0.7,0,1.4,0,2.1,0L10.9-22.3z"/>
				<path id="Path_3555" class="st15" d="M-28.9,5.9L7-7.2c2.3-1.5,3.7-3.9,3.9-6.7v-3.2c-0.7,0-1.4,0-2.1,0v4.4
					c-0.1,1.2-0.7,2.3-1.7,3l-36,13.1c-0.6,0.4-1,1.1-1.1,1.8C-30,5.9-29.5,6.2-28.9,5.9z"/>
			</g>
			<path id="Path_3556" class="st16" d="M-29.7,5.9L14,31.2L51.1,9.1L54,4.7l-0.3,1.6l-0.8-4.1l-68.8,2.6L-28,4.1L-29.7,5.9z"/>
			<path id="Path_3557" class="st17" d="M-28.3-1.7v5.4L14,28.1l1.1-5.2L-28.3-1.7z"/>
			<path id="Path_3558" class="st4" d="M53.5,0.5L9.8-24.7L-29.6-1.9l-0.1,0.6L14.1,24L53.5,0.5z"/>
			<g id="Group_564" transform="translate(43.981 27.47)">
				<path id="Path_3559" class="st1" d="M-4.4-14l10.3-6.1c0.9-0.7,1.5-1.7,1.5-2.9v-0.8c0-0.6-0.3-1.1-0.7-1.2l-20.2,11.2L-30-4.9
					v5.4L-4.4-14z"/>
			</g>
			<path id="Path_3560" class="st16" d="M15.5,23.1L-27.9-1.9l-0.9-0.6L-29.7-3C-29.9-2.7-30-2.3-30-2c0,0.3,0.1,0.5,0.3,0.7l0,0
				L14,24L15.5,23.1z"/>
			<path id="Path_3561" class="st1" d="M13.5,30.8l0.6,0.3l0.1-0.2l-0.3-0.3L13.5,30.8z"/>
			<path id="Path_3562" class="st1" d="M13.5,23.6l0.6,0.3l-0.1-0.3H13.5z"/>
			<g id="Group_565" transform="translate(43.727 25.253)">
				<path id="Path_3563" class="st4" d="M-28.9-3.8l36-20.7c2.1-1.2,3.8-0.2,3.8,2.2v0.8c-0.2,2.7-1.6,5.2-3.9,6.7l-36,20.7
					c-0.6,0.3-1.1,0-1.1-0.6c0-0.7,0.4-1.4,1.1-1.8L7-17.2c1-0.7,1.7-1.8,1.7-3V-21c0-1.1-0.8-1.6-1.7-1L-28.9-1.3
					C-29.5-1-30-1.3-30-1.9C-29.9-2.7-29.5-3.4-28.9-3.8z"/>
			</g>
			<path id="Path_3564" class="st1" d="M-1.2,1.4L17.5-9.3L33.7,0L15,10.8L-1.2,1.4z"/>
			<g id="Group_566" transform="translate(43.176 24.944)">
				<path id="Path_3565" class="st1" d="M-29.4,5.6c0-0.7,0.4-1.4,1.1-1.8L7.6-17c1-0.7,1.7-1.8,1.7-3v-0.8c0-0.7-0.3-1.1-0.8-1.2
					c0.2,0.3,0.3,0.6,0.3,0.9v0.8c-0.1,1.2-0.7,2.3-1.7,3l-36,20.7c-0.6,0.4-1,1.1-1.1,1.8c0,0.5,0.3,0.8,0.6,0.8
					C-29.4,5.9-29.4,5.7-29.4,5.6z"/>
				<path id="Path_3566" class="st1" d="M-29.4-1.6c0-0.7,0.4-1.4,1.1-1.8l36-20.7c0.7-0.5,1.6-0.6,2.4-0.4c-0.9-0.6-2.1-0.6-3,0.1
					l-36,20.7c-0.6,0.4-1,1.1-1.1,1.8c0,0.5,0.3,0.8,0.6,0.8C-29.4-1.3-29.4-1.5-29.4-1.6z"/>
			</g>
		</g>
		<g id="Group_572" transform="translate(55.936 2.884)">
			<g id="Group_568">
				<path id="Path_3567" class="st12" d="M10.9-22.3c0-2.5-1.7-3.4-3.8-2.2l-36,20.7c-0.6,0.4-1,1.1-1.1,1.8c0,0.7,0.5,0.9,1.1,0.6
					l36-20.7c1-0.6,1.7-0.1,1.7,1v4c0.7,0,1.4,0,2.1,0L10.9-22.3z"/>
				<path id="Path_3568" class="st13" d="M-28.9,5.9L7-7.2c2.3-1.5,3.7-3.9,3.9-6.6v-3.2c-0.7,0-1.4,0-2.1,0v4.4
					c-0.1,1.2-0.7,2.3-1.7,3l-36,13.1c-0.6,0.4-1,1.1-1.1,1.8C-30,5.9-29.5,6.2-28.9,5.9z"/>
			</g>
			<path id="Path_3569" class="st13" d="M-29.7,5.9L14,31.2L51.1,9.1L54,4.8l-0.3,1.5l-0.8-4.1l-68.8,2.6L-28,4.1L-29.7,5.9z"/>
			<path id="Path_3570" class="st18" d="M-28.3-1.7v5.4L14,28.1l1.1-5.1L-28.3-1.7z"/>
			<path id="Path_3571" class="st12" d="M53.5,0.5L9.8-24.7L-29.6-1.9l-0.1,0.6L14.1,24L53.5,0.5z"/>
			<g id="Group_569" transform="translate(43.981 27.47)">
				<path id="Path_3572" class="st1" d="M-4.4-14l10.3-6.1c0.9-0.7,1.5-1.7,1.5-2.9v-0.8c0-0.6-0.3-1.1-0.7-1.2l-20.2,11.2L-30-4.9
					v5.4L-4.4-14z"/>
			</g>
			<path id="Path_3573" class="st13" d="M15.5,23.1L-27.9-1.9l-0.9-0.6L-29.7-3C-29.9-2.7-30-2.3-30-2c0,0.3,0.1,0.5,0.3,0.7l0,0
				L14,24L15.5,23.1z"/>
			<path id="Path_3574" class="st1" d="M13.5,30.8l0.6,0.3l0.1-0.2l-0.3-0.3L13.5,30.8z"/>
			<path id="Path_3575" class="st1" d="M13.5,23.6l0.6,0.3l-0.1-0.3H13.5z"/>
			<g id="Group_570" transform="translate(43.727 25.253)">
				<path id="Path_3576" class="st12" d="M-28.9-3.8l36-20.7c2.1-1.2,3.8-0.2,3.8,2.2v0.8c-0.2,2.7-1.6,5.2-3.9,6.7l-36,20.7
					c-0.6,0.3-1.1,0-1.1-0.6c0-0.7,0.4-1.4,1.1-1.8L7-17.2c1-0.7,1.7-1.8,1.7-3V-21c0-1.1-0.8-1.6-1.7-1l-36,20.7
					C-29.5-1-30-1.3-30-1.9C-29.9-2.7-29.5-3.4-28.9-3.8z"/>
			</g>
			<path id="Path_3577" class="st1" d="M-1.2,1.4L17.5-9.3L33.7,0L15,10.8L-1.2,1.4z"/>
			<g id="Group_571" transform="translate(43.176 24.944)">
				<path id="Path_3578" class="st1" d="M-29.4,5.6c0-0.7,0.4-1.4,1.1-1.8L7.6-17c1-0.7,1.7-1.8,1.7-3v-0.8c0-0.7-0.3-1.1-0.8-1.2
					c0.2,0.3,0.3,0.6,0.3,0.9v0.8c-0.1,1.2-0.7,2.3-1.7,3l-36,20.7c-0.6,0.4-1,1.1-1.1,1.8c0,0.5,0.3,0.8,0.6,0.8
					C-29.4,5.9-29.4,5.7-29.4,5.6z"/>
				<path id="Path_3579" class="st1" d="M-29.4-1.6c0-0.7,0.4-1.4,1.1-1.8l36-20.7c0.7-0.5,1.6-0.6,2.4-0.4c-0.9-0.6-2.1-0.6-3,0.1
					l-36,20.7c-0.6,0.4-1,1.1-1.1,1.8c0,0.5,0.3,0.8,0.6,0.8C-29.4-1.3-29.4-1.5-29.4-1.6z"/>
			</g>
		</g>
		<g id="Group_576" transform="translate(-0.009 -0.029)">
			<path id="Path_3580" class="st11" d="M21.7,79.8L-29,50.6c-1.4-0.8-1.3-2.3,0.4-3.2L5.9,27.5c1.7-1,3.8-1.1,5.6-0.2l50.8,29.3
				c1.4,0.8,1.3,2.3-0.4,3.2L27.3,79.6C25.6,80.6,23.5,80.7,21.7,79.8z"/>
			<path id="Path_3581" class="st19" d="M74.2,4.6L23.4-24.7c-0.5-0.3-1.2-0.4-1.7-0.2l0,0l-0.1,0h0l-1.8,0.7l1.7,0.8c0,0,0,0,0,0.1
				l-8.3,37.6c-0.4,1.9,0.3,3.8,1.9,4.9l49.5,28.6L64.4,50l2-0.8c0.8-0.4,1.3-1.2,1.4-2l8.3-37.6C76.5,7.7,75.8,5.7,74.2,4.6z"/>
			<path id="Path_3582" class="st14" d="M74.2,4.6L23.4-24.7c-0.5-0.3-1.2-0.4-1.7-0.2l0,0l-0.1,0h0l-1.8,0.7l1.7,0.8c0,0,0,0,0,0.1
				L15.9,1.5l24.9,19.3l35-14.2C75.5,5.8,75,5.1,74.2,4.6z"/>
			<path id="Path_3583" class="st20" d="M72.3,10.4l3.9-1.7c0.1-1.5-0.5-2.9-1.6-3.9l-6.1,2.6L72.3,10.4z"/>
			<path id="Path_3584" class="st12" d="M62.6,49.7L11.8,20.5c-1.5-1.1-2.3-3.1-1.9-4.9l8.3-37.6c0.4-1.9,1.9-2.8,3.4-1.9L72.3,5.3
				c1.5,1.1,2.3,3.1,1.9,4.9l-8.3,37.6C65.5,49.7,64,50.5,62.6,49.7z"/>
			<path id="Path_3585" class="st1" d="M72.9,5.1L22.1-24.1c-0.6-0.4-1.4-0.4-2-0.1c0.5-0.1,1.1,0,1.5,0.3L72.4,5.3
				c1.5,1.1,2.3,3.1,1.9,4.9L66,47.8c-0.1,0.8-0.6,1.6-1.4,2c1-0.3,1.7-1.1,1.8-2.2L74.7,10C75.1,8.2,74.4,6.3,72.9,5.1z"/>
			<path id="Path_3586" class="st1" d="M61.5,46.9L13.7,19.4c-1.4-1-2.1-2.8-1.7-4.5l7.6-34.4c0.4-1.7,1.7-2.5,3.1-1.7L70.4,6.3
				c1.4,1,2.1,2.8,1.7,4.5l-7.5,34.4C64.2,46.9,62.8,47.7,61.5,46.9z"/>
			<path id="Path_3587" class="st19" d="M61.5,46.9L13.7,19.4c-1.4-1-2.1-2.8-1.7-4.5l7.6-34.4c0.4-1.7,1.7-2.5,3.1-1.7L70.4,6.3
				c1.4,1,2.1,2.8,1.7,4.5l-7.5,34.4C64.2,46.9,62.8,47.7,61.5,46.9z"/>
			<path id="Path_3588" class="st13" d="M61.9,46.8L14.2,19.2c-1.4-1-2.1-2.8-1.7-4.5L20-19.7c0.1-0.7,0.6-1.4,1.2-1.8
				c-0.9,0.3-1.5,1.1-1.6,2L12,14.9c-0.4,1.7,0.3,3.5,1.7,4.5l47.8,27.5c0.6,0.4,1.3,0.4,1.9,0.1C62.9,47.1,62.3,47,61.9,46.8z"/>
			<path id="Path_3589" class="st19" d="M63.3,51l-7-0.9L11.6,24.2c-1.8-0.8-3.9-0.7-5.6,0.2l-31.8,18.3l-4.2-0.6v2.4l0,0
				c0,0.6,0.4,1.2,1,1.5l50.8,29.3c1.8,0.8,3.9,0.7,5.6-0.2l34.6-19.9c0.9-0.6,1.4-1.2,1.4-1.9l0,0L63.3,51L63.3,51z"/>
			<path id="Path_3590" class="st14" d="M29.6,34.7l-3.2-1.8h-35l-17.3,9.9l-4.2-0.6v2.4l0,0c0,0.6,0.4,1.2,1,1.5l50.8,29.3
				c0.9,0.4,1.9,0.6,2.9,0.6L29.6,34.7z"/>
			<path id="Path_3591" class="st13" d="M-28.1,42.5l-1.9-0.3v2.4l0,0c0,0.6,0.4,1.2,1,1.5l0.9,0.5L-28.1,42.5L-28.1,42.5z"/>
			<path id="Path_3592" class="st20" d="M22.3,75.6c1.6,0.5,3.3,0.4,4.8-0.3V70h-4.8V75.6z"/>
			<path id="Path_3593" class="st12" d="M21.7,73L-29,43.7c-1.4-0.8-1.3-2.3,0.4-3.2L5.9,20.6c1.7-1,3.8-1.1,5.6-0.2l50.8,29.3
				c1.4,0.8,1.3,2.3-0.4,3.2L27.3,72.8C25.6,73.7,23.5,73.8,21.7,73z"/>
			<path id="Path_3594" class="st1" d="M61.9,51.9L27.3,71.8c-1.7,1-3.8,1.1-5.6,0.2L-29,42.8c-0.4-0.2-0.7-0.5-0.9-1
				c-0.2,0.8,0.2,1.6,0.9,1.9L21.7,73c1.8,0.8,3.9,0.7,5.6-0.2l34.6-19.9c1.1-0.6,1.6-1.5,1.3-2.2C63,51.2,62.5,51.7,61.9,51.9z"/>
			<g id="Group_573" transform="translate(20.155 46.547)">
				<path id="Path_3595" class="st13" d="M-27.6-12.5l-2.3-1.3c-0.2-0.1-0.2-0.3,0-0.4l2.7-1.6c0.2-0.1,0.5-0.1,0.7,0l2.3,1.3
					c0.2,0.1,0.2,0.3,0,0.4l-2.7,1.6C-27.1-12.5-27.4-12.4-27.6-12.5z"/>
				<path id="Path_3596" class="st13" d="M-24-10.5l-2.3-1.3c-0.2-0.1-0.2-0.3,0-0.4l2.7-1.6c0.2-0.1,0.5-0.1,0.7,0l2.3,1.3
					c0.2,0.1,0.2,0.3,0,0.4l-2.7,1.6C-23.5-10.4-23.8-10.4-24-10.5z"/>
				<path id="Path_3597" class="st13" d="M-20.5-8.5l-2.3-1.3c-0.2-0.1-0.2-0.3,0-0.4l2.7-1.6c0.2-0.1,0.5-0.1,0.7,0l2.3,1.3
					c0.2,0.1,0.2,0.3,0,0.4l-2.7,1.6C-20-8.3-20.3-8.3-20.5-8.5z"/>
				<path id="Path_3598" class="st13" d="M-15.6-10.1l-2.3-1.3c-0.2-0.1-0.2-0.3,0-0.4l2.3-1.3c0.2-0.1,0.5-0.1,0.7,0l2.3,1.3
					c0.2,0.1,0.2,0.3,0,0.4l-2.3,1.3C-15.1-10-15.3-10-15.6-10.1z"/>
				<path id="Path_3599" class="st13" d="M-12-8.1l-2.3-1.3c-0.2-0.1-0.2-0.3,0-0.4l2.3-1.3c0.2-0.1,0.5-0.1,0.7,0L-9-9.9
					c0.2,0.1,0.2,0.3,0,0.4l-2.3,1.3C-11.5-8-11.8-8-12-8.1z"/>
				<path id="Path_3600" class="st13" d="M-8.5-6l-2.3-1.3c-0.2-0.1-0.2-0.3,0-0.4l2.3-1.3c0.2-0.1,0.5-0.1,0.7,0l2.3,1.3
					c0.2,0.1,0.2,0.3,0,0.4l-2.3,1.3C-8-6-8.3-5.9-8.5-6z"/>
				<path id="Path_3601" class="st13" d="M-4.9-4l-2.3-1.3c-0.2-0.1-0.2-0.3,0-0.4l2.3-1.3c0.2-0.1,0.5-0.1,0.7,0l2.3,1.3
					c0.2,0.1,0.2,0.3,0,0.4l-2.3,1.3C-4.4-3.9-4.7-3.9-4.9-4z"/>
				<path id="Path_3602" class="st13" d="M-1.4-1.9l-2.3-1.3c-0.2-0.1-0.2-0.3,0-0.4L-1.3-5c0.2-0.1,0.5-0.1,0.7,0l2.3,1.3
					c0.2,0.1,0.2,0.3,0,0.4L-0.7-2C-0.9-1.9-1.1-1.8-1.4-1.9z"/>
				<path id="Path_3603" class="st13" d="M2.1,0.1l-2.3-1.3c-0.2-0.1-0.2-0.3,0-0.4L2.2-3c0.2-0.1,0.5-0.1,0.7,0l2.3,1.3
					c0.2,0.1,0.2,0.3,0,0.4L2.9,0.1C2.6,0.2,2.4,0.2,2.1,0.1z"/>
				<path id="Path_3604" class="st13" d="M5.7,2.1L3.4,0.8c-0.2-0.1-0.2-0.3,0-0.4l2.3-1.3C6-1,6.2-1.1,6.5-1l2.3,1.3
					c0.2,0.1,0.2,0.3,0,0.4L6.4,2.1C6.2,2.2,5.9,2.2,5.7,2.1z"/>
				<path id="Path_3605" class="st13" d="M9.3,4.2L7,2.9C6.8,2.8,6.8,2.6,7,2.5l2.3-1.3C9.5,1,9.8,1,10,1.1l2.3,1.3
					c0.2,0.1,0.2,0.3,0,0.4L10,4.2C9.8,4.3,9.5,4.3,9.3,4.2z"/>
				<path id="Path_3606" class="st13" d="M12.8,6.2l-2.3-1.3c-0.2-0.1-0.2-0.3,0-0.4l2.3-1.3c0.2-0.1,0.5-0.1,0.7,0l2.3,1.3
					c0.2,0.1,0.2,0.3,0,0.4l-2.3,1.3C13.3,6.3,13,6.3,12.8,6.2z"/>
				<path id="Path_3607" class="st13" d="M16.4,8.3L14.1,7c-0.2-0.1-0.2-0.3,0-0.4l2.3-1.3c0.2-0.1,0.5-0.1,0.7,0l2.3,1.3
					c0.2,0.1,0.2,0.3,0,0.4l-2.3,1.3C16.9,8.4,16.6,8.4,16.4,8.3z"/>
				<path id="Path_3608" class="st13" d="M-10.4-11.1l-2.3-1.3c-0.2-0.1-0.2-0.3,0-0.4l2.3-1.3c0.2-0.1,0.5-0.1,0.7,0l2.3,1.3
					c0.2,0.1,0.2,0.3,0,0.4l-2.3,1.3C-9.9-11-10.1-11-10.4-11.1z"/>
				<path id="Path_3609" class="st13" d="M-14-13.2l-2.3-1.3c-0.2-0.1-0.2-0.3,0-0.4l2.3-1.3c0.2-0.1,0.5-0.1,0.7,0l2.3,1.3
					c0.2,0.1,0.2,0.3,0,0.4l-2.3,1.3C-13.5-13.1-13.7-13.1-14-13.2z"/>
				<path id="Path_3610" class="st13" d="M-17.6-15.2l-5-2.8c-0.2-0.1-0.2-0.3,0-0.4l2.3-1.3c0.2-0.1,0.5-0.1,0.7,0l5,2.8
					c0.2,0.1,0.2,0.3,0,0.4l-2.3,1.3C-17.1-15.2-17.3-15.1-17.6-15.2z"/>
				<path id="Path_3611" class="st13" d="M-15-17.8l-4-2.3c-0.2-0.1-0.2-0.3,0-0.4l2.3-1.3c0.2-0.1,0.5-0.1,0.7,0l4,2.3
					c0.2,0.1,0.2,0.3,0,0.4l-2.3,1.3C-14.5-17.7-14.8-17.7-15-17.8z"/>
				<path id="Path_3612" class="st13" d="M-6.8-9.1l-2.3-1.3c-0.2-0.1-0.2-0.3,0-0.4l2.3-1.3c0.2-0.1,0.5-0.1,0.7,0l2.3,1.3
					c0.2,0.1,0.2,0.3,0,0.4l-2.3,1.3C-6.3-9-6.6-9-6.8-9.1z"/>
				<path id="Path_3613" class="st13" d="M-3.2-7l-2.3-1.3c-0.2-0.1-0.2-0.3,0-0.4l2.3-1.3c0.2-0.1,0.5-0.1,0.7,0l2.3,1.3
					C0-8.7,0-8.5-0.2-8.4l-2.3,1.3C-2.7-6.9-3-6.9-3.2-7z"/>
				<path id="Path_3614" class="st13" d="M0.3-4.9L-2-6.3c-0.2-0.1-0.2-0.3,0-0.4L0.3-8C0.5-8.1,0.8-8.1,1-8l2.3,1.3
					c0.2,0.1,0.2,0.3,0,0.4L1-5C0.8-4.9,0.5-4.9,0.3-4.9z"/>
				<path id="Path_3615" class="st13" d="M3.8-2.9L1.6-4.2c-0.2-0.1-0.2-0.3,0-0.4L3.9-6c0.2-0.1,0.5-0.1,0.7,0l2.3,1.3
					c0.2,0.1,0.2,0.3,0,0.4L4.6-3C4.3-2.8,4.1-2.8,3.8-2.9z"/>
				<path id="Path_3616" class="st13" d="M7.4-0.9L5.1-2.2c-0.2-0.1-0.2-0.3,0-0.4l2.3-1.3C7.7-4,7.9-4.1,8.2-4l2.3,1.3
					c0.2,0.1,0.2,0.3,0,0.4L8.1-0.9C7.9-0.8,7.6-0.8,7.4-0.9z"/>
				<path id="Path_3617" class="st13" d="M10.9,1.2L8.6-0.2c-0.2-0.1-0.2-0.3,0-0.4L11-1.9c0.2-0.1,0.5-0.1,0.7,0L14-0.6
					c0.2,0.1,0.2,0.3,0,0.4l-2.3,1.3C11.4,1.3,11.1,1.3,10.9,1.2z"/>
				<path id="Path_3618" class="st13" d="M14.5,3.2l-2.3-1.3c-0.2-0.1-0.2-0.3,0-0.4l2.3-1.3c0.2-0.1,0.5-0.1,0.7,0l2.3,1.3
					c0.2,0.1,0.2,0.3,0,0.4l-2.3,1.3C15,3.3,14.7,3.3,14.5,3.2z"/>
				<path id="Path_3619" class="st13" d="M18,5.3l-2.3-1.3c-0.2-0.1-0.2-0.3,0-0.4L18,2.2c0.2-0.1,0.5-0.1,0.7,0l2.3,1.3
					c0.2,0.1,0.2,0.3,0,0.4l-2.3,1.3C18.5,5.4,18.2,5.4,18,5.3z"/>
				<path id="Path_3620" class="st13" d="M21.6,7.3L19.3,6c-0.2-0.1-0.2-0.3,0-0.4l2.3-1.3c0.2-0.1,0.5-0.1,0.7,0l2.3,1.3
					c0.2,0.1,0.2,0.3,0,0.4l-2.3,1.3C22.1,7.4,21.8,7.4,21.6,7.3z"/>
				<path id="Path_3621" class="st13" d="M27.9,10.9l-5-2.9c-0.2-0.1-0.2-0.3,0-0.4l2.3-1.3c0.2-0.1,0.5-0.1,0.7,0l5,2.9
					c0.2,0.1,0.2,0.3,0,0.4l-2.3,1.3C28.4,11,28.1,11,27.9,10.9z"/>
				<path id="Path_3622" class="st13" d="M34.8,7l-4.2-2.5c-0.2-0.1-0.2-0.3,0-0.4l2.3-1.3c0.2-0.1,0.5-0.1,0.7,0l4.2,2.5
					c0.2,0.1,0.2,0.3,0,0.4l-2.3,1.3C35.3,7.1,35,7.1,34.8,7z"/>
				<path id="Path_3623" class="st13" d="M-0.6-9.5l-2.3-1.3c-0.2-0.1-0.2-0.3,0-0.4l2.3-1.3c0.2-0.1,0.5-0.1,0.7,0l2.3,1.3
					c0.2,0.1,0.2,0.3,0,0.4L0.1-9.5C-0.1-9.4-0.4-9.3-0.6-9.5z"/>
				<path id="Path_3624" class="st13" d="M-4.2-11.6l-2.3-1.3c-0.2-0.1-0.2-0.3,0-0.4l2.3-1.3c0.2-0.1,0.5-0.1,0.7,0l2.3,1.3
					c0.2,0.1,0.2,0.3,0,0.4l-2.3,1.3C-3.7-11.5-4-11.4-4.2-11.6z"/>
				<path id="Path_3625" class="st13" d="M-7.9-13.6l-2.3-1.3c-0.2-0.1-0.2-0.3,0-0.4l2.3-1.3c0.2-0.1,0.5-0.1,0.7,0l2.3,1.3
					c0.2,0.1,0.2,0.3,0,0.4l-2.3,1.3C-7.4-13.6-7.6-13.5-7.9-13.6z"/>
				<path id="Path_3626" class="st13" d="M-11.5-15.7l-2.3-1.3c-0.2-0.1-0.2-0.3,0-0.4l2.3-1.3c0.2-0.1,0.5-0.1,0.7,0l2.3,1.3
					c0.2,0.1,0.2,0.3,0,0.4l-2.3,1.3C-11-15.7-11.3-15.6-11.5-15.7z"/>
				<path id="Path_3627" class="st13" d="M2.9-7.4L0.7-8.7C0.5-8.8,0.5-9,0.7-9.1L3-10.5c0.2-0.1,0.5-0.1,0.7,0L6-9.2
					c0.2,0.1,0.2,0.3,0,0.4L3.7-7.4C3.4-7.3,3.2-7.3,2.9-7.4z"/>
				<path id="Path_3628" class="st13" d="M6.5-5.4L4.2-6.7C4.1-6.8,4.1-7,4.3-7.1l2.3-1.3c0.2-0.1,0.5-0.1,0.7,0l2.3,1.3
					c0.2,0.1,0.2,0.3,0,0.4L7.2-5.4C7-5.3,6.7-5.3,6.5-5.4z"/>
				<path id="Path_3629" class="st13" d="M10-3.3L7.7-4.7C7.6-4.8,7.6-5,7.8-5.1l2.3-1.3c0.2-0.1,0.5-0.1,0.7,0l2.3,1.3
					c0.2,0.1,0.2,0.3,0,0.4l-2.3,1.3C10.5-3.2,10.3-3.2,10-3.3z"/>
				<path id="Path_3630" class="st13" d="M13.6-1.3l-2.3-1.3c-0.2-0.1-0.2-0.3,0-0.4l2.3-1.3c0.2-0.1,0.5-0.1,0.7,0L16.6-3
					c0.2,0.1,0.2,0.3,0,0.4l-2.3,1.3C14.1-1.2,13.8-1.2,13.6-1.3z"/>
				<path id="Path_3631" class="st13" d="M17.2,0.8l-2.3-1.3c-0.2-0.1-0.2-0.3,0-0.4l2.3-1.3c0.2-0.1,0.5-0.1,0.7,0L20.2-1
					c0.2,0.1,0.2,0.3,0,0.4l-2.3,1.3C17.7,0.8,17.4,0.9,17.2,0.8z"/>
				<path id="Path_3632" class="st13" d="M20.7,2.8l-2.3-1.3c-0.2-0.1-0.2-0.3,0-0.4l2.3-1.3c0.2-0.1,0.5-0.1,0.7,0L23.7,1
					c0.2,0.1,0.2,0.3,0,0.4l-2.3,1.3C21.2,2.9,20.9,2.9,20.7,2.8z"/>
				<path id="Path_3633" class="st13" d="M24.2,4.9l-2.3-1.3c-0.2-0.1-0.2-0.3,0-0.4l2.3-1.3c0.2-0.1,0.5-0.1,0.7,0l2.3,1.3
					c0.2,0.1,0.2,0.3,0,0.4L25,4.8C24.7,5,24.5,5,24.2,4.9z"/>
				<path id="Path_3634" class="st13" d="M27.8,6.9l-2.3-1.3c-0.2-0.1-0.2-0.3,0-0.4l2.3-1.3c0.2-0.1,0.5-0.1,0.7,0l2.3,1.3
					c0.2,0.1,0.2,0.3,0,0.4l-2.3,1.3C28.3,7,28,7,27.8,6.9z"/>
				<path id="Path_3635" class="st13" d="M31.3,8.9L29,7.6c-0.2-0.1-0.2-0.3,0-0.4l2.3-1.3c0.2-0.1,0.5-0.1,0.7,0l2.3,1.3
					c0.2,0.1,0.2,0.3,0,0.4L32,8.9C31.8,9,31.6,9.1,31.3,8.9z"/>
				<path id="Path_3636" class="st13" d="M-2.5-14.5l-2.3-1.3c-0.2-0.1-0.2-0.3,0-0.4l2.3-1.3c0.2-0.1,0.5-0.1,0.7,0l2.3,1.3
					c0.2,0.1,0.2,0.3,0,0.4l-2.3,1.3C-2-14.4-2.2-14.4-2.5-14.5z"/>
				<path id="Path_3637" class="st13" d="M-6-16.6l-2.3-1.3c-0.2-0.1-0.2-0.3,0-0.4l2.3-1.3c0.2-0.1,0.5-0.1,0.7,0l2.3,1.3
					c0.2,0.1,0.2,0.3,0,0.4l-2.3,1.3C-5.5-16.5-5.8-16.5-6-16.6z"/>
				<path id="Path_3638" class="st13" d="M-9.5-18.6l-2.3-1.3c-0.2-0.1-0.2-0.3,0-0.4l2.3-1.3c0.2-0.1,0.5-0.1,0.7,0l2.3,1.3
					c0.2,0.1,0.2,0.3,0,0.4l-2.3,1.3C-9-18.5-9.3-18.5-9.5-18.6z"/>
				<path id="Path_3639" class="st13" d="M-13-20.6l-2.3-1.3c-0.2-0.1-0.2-0.3,0-0.4l2.3-1.3c0.2-0.1,0.5-0.1,0.7,0l2.3,1.3
					c0.2,0.1,0.2,0.3,0,0.4l-2.3,1.3C-12.5-20.5-12.8-20.5-13-20.6z"/>
				<path id="Path_3640" class="st13" d="M-9.4-22.7l-2.3-1.3c-0.2-0.1-0.2-0.3,0-0.4l0.8-0.4c0.2-0.1,0.5-0.1,0.7,0l2.3,1.3
					c0.2,0.1,0.2,0.3,0,0.4l-0.8,0.4C-8.9-22.6-9.2-22.6-9.4-22.7z"/>
				<path id="Path_3641" class="st13" d="M-4.8-20.1l-2.3-1.3c-0.2-0.1-0.2-0.3,0-0.4l0.8-0.4c0.2-0.1,0.5-0.1,0.7,0l2.3,1.3
					c0.2,0.1,0.2,0.3,0,0.4l-0.8,0.4C-4.3-20-4.6-20-4.8-20.1z"/>
				<path id="Path_3642" class="st13" d="M-1.3-18l-2.3-1.3c-0.2-0.1-0.2-0.3,0-0.4l0.8-0.4c0.2-0.1,0.5-0.1,0.7,0l2.3,1.3
					c0.2,0.1,0.2,0.3,0,0.4l-0.8,0.4C-0.8-17.9-1.1-17.9-1.3-18z"/>
				<path id="Path_3643" class="st13" d="M2.2-16l-2.3-1.3c-0.2-0.1-0.2-0.3,0-0.4l0.8-0.4c0.2-0.1,0.5-0.1,0.7,0l2.3,1.3
					c0.2,0.1,0.2,0.3,0,0.4L2.9-16C2.7-15.9,2.5-15.9,2.2-16z"/>
				<path id="Path_3644" class="st13" d="M5.7-14l-2.3-1.3c-0.2-0.1-0.2-0.3,0-0.4l0.8-0.4c0.2-0.1,0.5-0.1,0.7,0l2.3,1.3
					c0.2,0.1,0.2,0.3,0,0.4L6.5-14C6.2-13.9,6-13.9,5.7-14z"/>
				<path id="Path_3645" class="st13" d="M25.3-2.7L23.1-4c-0.2-0.1-0.2-0.3,0-0.4l0.8-0.4c0.2-0.1,0.5-0.1,0.7,0l2.3,1.3
					c0.2,0.1,0.2,0.3,0,0.4l-0.8,0.4C25.8-2.6,25.6-2.6,25.3-2.7z"/>
				<path id="Path_3646" class="st13" d="M28.9-0.6l-2.3-1.3c-0.2-0.1-0.2-0.3,0-0.4l0.8-0.4c0.2-0.1,0.5-0.1,0.7,0l2.3,1.3
					c0.2,0.1,0.2,0.3,0,0.4l-0.8,0.4C29.4-0.6,29.1-0.5,28.9-0.6z"/>
				<path id="Path_3647" class="st13" d="M32.4,1.4l-2.3-1.3c-0.2-0.1-0.2-0.3,0-0.4l0.8-0.4c0.2-0.1,0.5-0.1,0.7,0l2.3,1.3
					c0.2,0.1,0.2,0.3,0,0.4l-0.8,0.4C32.9,1.5,32.6,1.5,32.4,1.4z"/>
				<path id="Path_3648" class="st13" d="M35.9,3.4l-2.3-1.3c-0.2-0.1-0.2-0.3,0-0.4l0.8-0.4c0.2-0.1,0.5-0.1,0.7,0l2.3,1.3
					c0.2,0.1,0.2,0.3,0,0.4l-0.8,0.4C36.4,3.5,36.1,3.5,35.9,3.4z"/>
				<path id="Path_3649" class="st13" d="M1.1-12.5l-2.3-1.3c-0.2-0.1-0.2-0.3,0-0.4l2.3-1.3c0.2-0.1,0.5-0.1,0.7,0l2.3,1.3
					c0.2,0.1,0.2,0.3,0,0.4l-2.3,1.3C1.6-12.4,1.3-12.4,1.1-12.5z"/>
				<path id="Path_3650" class="st13" d="M4.6-10.4l-2.3-1.3c-0.2-0.1-0.2-0.3,0-0.4l2.3-1.3c0.2-0.1,0.5-0.1,0.7,0l2.3,1.3
					c0.2,0.1,0.2,0.3,0,0.4l-2.3,1.3C5.1-10.3,4.9-10.3,4.6-10.4z"/>
				<path id="Path_3651" class="st13" d="M8.2-8.4L5.9-9.7c-0.2-0.1-0.2-0.3,0-0.4l2.3-1.3c0.2-0.1,0.5-0.1,0.7,0l2.3,1.3
					c0.2,0.1,0.2,0.3,0,0.4L8.9-8.4C8.7-8.3,8.4-8.3,8.2-8.4z"/>
				<path id="Path_3652" class="st13" d="M11.7-6.3L9.4-7.7C9.3-7.8,9.3-8,9.5-8.1l2.3-1.3c0.2-0.1,0.5-0.1,0.7,0l2.3,1.3
					C15-8,15-7.8,14.7-7.7l-2.3,1.3C12.2-6.2,12-6.2,11.7-6.3z"/>
				<path id="Path_3653" class="st13" d="M15.3-4.3L13-5.6c-0.2-0.1-0.2-0.3,0-0.4l2.3-1.3c0.2-0.1,0.5-0.1,0.7,0L18.3-6
					c0.2,0.1,0.2,0.3,0,0.4L16-4.3C15.8-4.2,15.5-4.2,15.3-4.3z"/>
				<path id="Path_3654" class="st13" d="M18.8-2.2l-2.3-1.3c-0.2-0.1-0.2-0.3,0-0.4l2.3-1.3c0.2-0.1,0.5-0.1,0.7,0L21.9-4
					c0.2,0.1,0.2,0.3,0,0.4l-2.3,1.3C19.3-2.2,19-2.1,18.8-2.2z"/>
				<path id="Path_3655" class="st13" d="M22.4-0.2l-2.3-1.3c-0.2-0.1-0.2-0.3,0-0.4l2.3-1.3c0.2-0.1,0.5-0.1,0.7,0L25.4-2
					c0.2,0.1,0.2,0.3,0,0.4l-2.3,1.3C22.9-0.1,22.6-0.1,22.4-0.2z"/>
				<path id="Path_3656" class="st13" d="M25.9,1.8l-2.3-1.3c-0.2-0.1-0.2-0.3,0-0.4L26-1.2c0.2-0.1,0.5-0.1,0.7,0L29,0.1
					c0.2,0.1,0.2,0.3,0,0.4l-2.3,1.3C26.4,1.9,26.2,2,25.9,1.8z"/>
				<path id="Path_3657" class="st13" d="M29.5,3.9l-2.3-1.3c-0.2-0.1-0.2-0.3,0-0.4l2.3-1.3c0.2-0.1,0.5-0.1,0.7,0l2.3,1.3
					c0.2,0.1,0.2,0.3,0,0.4l-2.3,1.3C30,4,29.7,4,29.5,3.9z"/>
				<path id="Path_3658" class="st13" d="M-19.2-12.2l-6.8-3.9c-0.2-0.1-0.2-0.3,0-0.4l2.3-1.3c0.2-0.1,0.5-0.1,0.7,0l6.8,3.9
					c0.2,0.1,0.2,0.3,0,0.4l-2.3,1.3C-18.7-12.1-19-12.1-19.2-12.2z"/>
				<path id="Path_3659" class="st13" d="M24.4,12.9L17.6,9c-0.2-0.1-0.2-0.3,0-0.4l2.3-1.3c0.2-0.1,0.5-0.1,0.7,0l6.8,3.9
					c0.2,0.1,0.2,0.3,0,0.4l-2.3,1.3C24.9,13,24.6,13,24.4,12.9z"/>
				<path id="Path_3660" class="st13" d="M10.2,9.2L7.9,7.9C7.7,7.8,7.7,7.6,8,7.5l2.7-1.6c0.2-0.1,0.5-0.1,0.7,0l2.3,1.3
					c0.2,0.1,0.2,0.3,0,0.4l-2.7,1.6C10.7,9.3,10.4,9.4,10.2,9.2z"/>
				<path id="Path_3661" class="st13" d="M-15.6-5.6l-3.7-2.1c-0.2-0.1-0.2-0.3,0-0.4l2.7-1.6c0.2-0.1,0.5-0.1,0.7,0l3.7,2.1
					c0.2,0.1,0.2,0.3,0,0.4l-2.7,1.6C-15.1-5.5-15.4-5.5-15.6-5.6z"/>
				<path id="Path_3662" class="st13" d="M6.8,7.3L3.1,5.2C2.9,5,2.9,4.9,3.1,4.8l2.7-1.6c0.2-0.1,0.5-0.1,0.7,0l3.7,2.1
					c0.2,0.1,0.2,0.3,0,0.4L7.5,7.3C7.3,7.4,7,7.4,6.8,7.3z"/>
				<path id="Path_3663" class="st13" d="M-10.5-2.7l-3.7-2.1c-0.2-0.1-0.2-0.3,0-0.4l2.7-1.6c0.2-0.1,0.5-0.1,0.7,0L-7-4.7
					c0.2,0.1,0.2,0.3,0,0.4l-2.7,1.6C-9.9-2.6-10.2-2.5-10.5-2.7z"/>
				<path id="Path_3664" class="st13" d="M-10.6-6.8l16,9.2c0.2,0.1,0.2,0.3,0,0.4L2.6,4.5c-0.2,0.1-0.5,0.1-0.7,0l-16-9.2
					L-10.6-6.8z"/>
				<path id="Path_3665" class="st13" d="M20.1,13l2.5,1.5c0.2,0.1,0.1,0.3,0,0.3l-1.1,0.6c-0.2,0.1-0.4,0.1-0.6,0L18.4,14
					c-0.2-0.1-0.1-0.3,0-0.3l1.1-0.6C19.7,12.9,19.9,12.9,20.1,13z"/>
				<path id="Path_3666" class="st13" d="M16.5,10.9l2.5,1.5c0.2,0.1,0.1,0.3,0,0.3l-1.1,0.6c-0.2,0.1-0.4,0.1-0.6,0l-2.5-1.5
					c-0.2-0.1-0.1-0.3,0-0.3l1.1-0.6C16.1,10.8,16.3,10.8,16.5,10.9z"/>
				<path id="Path_3667" class="st13" d="M13,8.9l2.5,1.5c0.2,0.1,0.1,0.3,0,0.3l-1.1,0.6c-0.2,0.1-0.4,0.1-0.6,0l-2.5-1.5
					c-0.2-0.1-0.1-0.3,0-0.3l1.1-0.6C12.6,8.8,12.8,8.8,13,8.9z"/>
				<path id="Path_3668" class="st13" d="M18.5,9.8l2.5,1.5c0.2,0.1,0.1,0.3,0,0.3l-1.1,0.6c-0.2,0.1-0.4,0.1-0.6,0l-2.5-1.5
					c-0.2-0.1-0.1-0.3,0-0.3l1.1-0.6C18.1,9.7,18.3,9.7,18.5,9.8z"/>
			</g>
			<g id="Group_574" transform="translate(53.867 14.964)">
				<path id="Path_3669" class="st12" d="M-1.2,1.4l-19.1-11l0.3-1.2l19.1,11L-1.2,1.4z"/>
				<path id="Path_3670" class="st12" d="M-8,3.5l-13.4-7.7l0.3-1.2l13.3,7.7L-8,3.5z"/>
				<path id="Path_3671" class="st1" d="M-9.3-0.2l-11.5-6.7l0.3-1.2L-9-1.4L-9.3-0.2z"/>
				<path id="Path_3672" class="st4" d="M-1.8,4.1l-5.8-3.3l0.3-1.2l5.8,3.3L-1.8,4.1z"/>
				<path id="Path_3673" class="st12" d="M-22.4-20.4l-5.8-3.3l0.3-1.3l5.8,3.3L-22.4-20.4z"/>
				<path id="Path_3674" class="st1" d="M-23-17.5l-5.8-3.3l0.2-1.3l5.8,3.3L-23-17.5z"/>
				<path id="Path_3675" class="st12" d="M5.3,22.5l-5.8-3.3l0.3-1.2l5.8,3.3L5.3,22.5z"/>
				<path id="Path_3676" class="st12" d="M-24.2-11.8l-5.8-3.3l0.3-1.2L-24-13L-24.2-11.8z"/>
			</g>
			<g id="Group_575" transform="translate(70.639 27.876)">
				<path id="Path_3677" class="st4" d="M-28.5-23.8c-0.2,0.4-0.6,0.5-1,0.4c0,0,0,0-0.1,0c-0.4-0.2-0.6-0.7-0.4-1.1
					c0.2-0.4,0.6-0.5,1-0.4c0,0,0,0,0.1,0C-28.5-24.7-28.3-24.2-28.5-23.8z"/>
				<path id="Path_3678" class="st1" d="M-26-22.4c-0.2,0.4-0.6,0.5-1,0.4c0,0,0,0-0.1,0c-0.4-0.2-0.6-0.7-0.4-1.1
					c0.2-0.4,0.6-0.5,1-0.4c0,0,0,0,0.1,0C-26-23.3-25.9-22.8-26-22.4z"/>
				<path id="Path_3679" class="st12" d="M-23.6-20.9c-0.2,0.4-0.6,0.5-1,0.4c0,0,0,0-0.1,0c-0.4-0.2-0.6-0.7-0.4-1.1
					c0.2-0.4,0.6-0.5,1-0.4c0,0,0,0,0.1,0C-23.5-21.9-23.4-21.3-23.6-20.9z"/>
				<path id="Path_3680" class="st4" d="M-21.1-19.5c-0.2,0.4-0.6,0.5-1,0.4c0,0,0,0-0.1,0c-0.4-0.2-0.6-0.7-0.4-1.1
					c0.2-0.4,0.6-0.5,1-0.4c0,0,0,0,0.1,0C-21.1-20.4-20.9-19.9-21.1-19.5z"/>
			</g>
		</g>
		<g id="Group_579" transform="translate(34.22 12.547)">
			<g id="Group_577">
				<path id="Path_3681" class="st21" d="M-13.8-18.1l-11.8-6.8c-0.2-0.1-0.5-0.1-0.7,0l0,0l-1.4,0.7c0,0,0.5,0.2,0.8,0.3l-1.7,8.6
					c-0.1,0.7,0.1,1.4,0.7,1.8l11.3,6.5l-0.2,1l1.4-0.7l0,0c0.3-0.2,0.5-0.4,0.5-0.8l1.7-8.8C-13-17-13.3-17.7-13.8-18.1z"/>
				<path id="Path_3682" class="st4" d="M-17.5-6.2L-29.3-13c-0.6-0.4-0.8-1.1-0.7-1.8l1.7-8.8c0.1-0.7,0.7-1,1.2-0.7l11.8,6.8
					c0.6,0.4,0.8,1.1,0.7,1.8l-1.7,8.8C-16.4-6.2-16.9-5.8-17.5-6.2z"/>
			</g>
			<g id="Group_578" transform="translate(4.171 7.576)">
				<path id="Path_3683" class="st1" d="M-28.4-23.5c0,0.3-0.3,0.6-0.7,0.6c-0.1,0-0.2,0-0.3-0.1c-0.5-0.3-0.7-0.8-0.6-1.4
					c0-0.3,0.3-0.6,0.7-0.6c0.1,0,0.2,0,0.3,0.1C-28.6-24.6-28.3-24.1-28.4-23.5z"/>
				<path id="Path_3684" class="st1" d="M-26-22.1c0,0.3-0.3,0.6-0.7,0.6c-0.1,0-0.2,0-0.3-0.1c-0.5-0.3-0.7-0.8-0.6-1.4
					c0-0.3,0.3-0.6,0.7-0.6c0.1,0,0.2,0,0.3,0.1C-26.2-23.2-25.9-22.7-26-22.1z"/>
				<path id="Path_3685" class="st1" d="M-23.6-20.8c0,0.3-0.3,0.6-0.7,0.6c-0.1,0-0.2,0-0.3-0.1c-0.5-0.3-0.7-0.8-0.6-1.4
					c0-0.4,0.4-0.6,0.7-0.6c0.1,0,0.2,0,0.2,0.1C-23.7-21.9-23.5-21.3-23.6-20.8z"/>
			</g>
		</g>
		<g id="Group_582" transform="translate(28.918 1.576)">
			<g id="Group_580">
				<path id="Path_3686" class="st13" d="M-13.8-18.1l-11.8-6.8c-0.2-0.1-0.5-0.1-0.7,0l0,0l-1.4,0.7c0,0,0.5,0.2,0.8,0.3l-1.7,8.6
					c-0.1,0.7,0.1,1.4,0.7,1.8l11.3,6.5l-0.2,1l1.4-0.7l0,0c0.3-0.2,0.5-0.4,0.5-0.8l1.7-8.8C-13-17-13.2-17.7-13.8-18.1z"/>
				<path id="Path_3687" class="st12" d="M-17.5-6.2L-29.3-13c-0.6-0.4-0.8-1.1-0.7-1.8l1.7-8.8c0.1-0.7,0.7-1,1.2-0.7l11.8,6.8
					c0.6,0.4,0.8,1.1,0.7,1.8l-1.7,8.8C-16.4-6.2-16.9-5.9-17.5-6.2z"/>
			</g>
			<g id="Group_581" transform="translate(4.171 7.533)">
				<path id="Path_3688" class="st1" d="M-28.4-23.5c0,0.3-0.3,0.6-0.7,0.6c-0.1,0-0.2,0-0.3-0.1c-0.5-0.3-0.7-0.8-0.6-1.4
					c0-0.3,0.3-0.6,0.7-0.6c0.1,0,0.2,0,0.3,0.1C-28.6-24.6-28.3-24.1-28.4-23.5z"/>
				<path id="Path_3689" class="st1" d="M-26-22.1c0,0.3-0.3,0.6-0.7,0.6c-0.1,0-0.2,0-0.3-0.1c-0.5-0.3-0.7-0.8-0.6-1.4
					c0-0.3,0.3-0.6,0.7-0.6c0.1,0,0.2,0,0.3,0.1C-26.1-23.2-25.9-22.7-26-22.1z"/>
				<path id="Path_3690" class="st1" d="M-23.6-20.7c0,0.3-0.3,0.6-0.7,0.6c-0.1,0-0.2,0-0.3-0.1c-0.5-0.3-0.7-0.8-0.6-1.4
					c0-0.3,0.3-0.6,0.7-0.6c0.1,0,0.2,0,0.3,0.1C-23.7-21.8-23.5-21.3-23.6-20.7z"/>
			</g>
		</g>
	</g>
</g>
</svg>
