<svg xmlns="http://www.w3.org/2000/svg" width="16.2" height="16.2" viewBox="0 0 16.2 16.2">
  <g id="confirmed" transform="translate(0.1 0.1)">
    <g id="Group_550" data-name="Group 550" transform="translate(5.333 5.667)">
      <g id="Group_549" data-name="Group 549">
        <path id="Path_3510" data-name="Path 3510" d="M134.14,136.2a.667.667,0,0,0-.943,0l-2.862,2.862-1.2-1.195a.667.667,0,1,0-.943.943l1.667,1.667a.666.666,0,0,0,.943,0l3.333-3.333A.667.667,0,0,0,134.14,136.2Z" transform="translate(-128.002 -136.002)" fill="#28a745" stroke="#28a745" stroke-width="0.2"/>
      </g>
    </g>
    <g id="confirmed-2" data-name="confirmed" transform="translate(0 0)">
      <g id="Group_551" data-name="Group 551" transform="translate(0 0)">
        <path id="Path_3511" data-name="Path 3511" d="M15.333,7.333A.667.667,0,0,0,14.667,8a6.666,6.666,0,1,1-1.936-4.7.667.667,0,1,0,.946-.939A8,8,0,1,0,16,8,.667.667,0,0,0,15.333,7.333Z" transform="translate(0 0)" fill="#28a745" stroke="#28a745" stroke-width="0.2"/>
      </g>
    </g>
  </g>
</svg>
