<svg xmlns="http://www.w3.org/2000/svg" width="9.065" height="15.878" viewBox="0 0 9.065 15.878">
  <path id="det-left" d="M125.573,7,118.722.168a.574.574,0,1,0-.811.813l6.444,6.426-6.444,6.426a.574.574,0,0,0,.811.813l6.851-6.832a.574.574,0,0,0,0-.813Z" transform="translate(126.242 15.313) rotate(180)" fill="#fff" stroke="#fff" stroke-width="1"/>
</svg>
