<svg xmlns="http://www.w3.org/2000/svg" width="7" height="14" viewBox="0 0 7 14">
  <g id="f" transform="translate(0.5)">
    <g id="Group_433" data-name="Group 433" transform="translate(0)">
      <path id="Path_3269" data-name="Path 3269" d="M132.375,4.812V3.063a.875.875,0,0,1,.875-.875h.875V0h-1.75a2.625,2.625,0,0,0-2.625,2.625V4.812H128V7h1.75v7h2.625V7h1.75L135,4.812Z" transform="translate(-128.5)" fill="#fff"/>
    </g>
  </g>
</svg>
