<svg id="georgia" xmlns="http://www.w3.org/2000/svg" width="20" height="20" viewBox="0 0 20 20">
  <circle id="Ellipse_457" data-name="Ellipse 457" cx="10" cy="10" r="10" transform="translate(0.001 0.001)" fill="#fff"/>
  <g id="Group_407" data-name="Group 407" transform="translate(0.121 0.121)">
    <path id="Path_3199" data-name="Path 3199" d="M11.184,2.857a10.006,10.006,0,0,0-8.327,8.327h8.327Z" transform="translate(-2.857 -2.857)" fill="#f3f4f5"/>
    <path id="Path_3200" data-name="Path 3200" d="M2.857,273.61a10.006,10.006,0,0,0,8.327,8.327V273.61Z" transform="translate(-2.857 -262.178)" fill="#f3f4f5"/>
  </g>
  <g id="Group_408" data-name="Group 408" transform="translate(3.431 3.475)">
    <rect id="Rectangle_1738" data-name="Rectangle 1738" width="0.854" height="3.395" transform="translate(1.27)" fill="#da1e37"/>
    <rect id="Rectangle_1739" data-name="Rectangle 1739" width="3.395" height="0.855" transform="translate(0 1.271)" fill="#da1e37"/>
    <rect id="Rectangle_1740" data-name="Rectangle 1740" width="0.854" height="3.395" transform="translate(1.27 9.868)" fill="#da1e37"/>
    <rect id="Rectangle_1741" data-name="Rectangle 1741" width="3.395" height="0.855" transform="translate(0 11.139)" fill="#da1e37"/>
  </g>
  <g id="Group_409" data-name="Group 409" transform="translate(11.553 0.121)">
    <path id="Path_3201" data-name="Path 3201" d="M275.786,276.676h2.894v.855H275.6a7.643,7.643,0,0,1-1.98,3.917v.494a10.006,10.006,0,0,0,8.326-8.327h-6.237A25.076,25.076,0,0,1,275.786,276.676Z" transform="translate(-273.617 -262.183)" fill="#e4e4e4"/>
    <path id="Path_3202" data-name="Path 3202" d="M275.648,7.482h3.032v.855h-2.854a24.836,24.836,0,0,1,0,2.848h6.119a10.006,10.006,0,0,0-8.326-8.327v.494A7.887,7.887,0,0,1,275.648,7.482Z" transform="translate(-273.617 -2.857)" fill="#e4e4e4"/>
  </g>
  <g id="Group_410" data-name="Group 410" transform="translate(9.127)">
    <path id="Path_3203" data-name="Path 3203" d="M216.381,472.765l-.222-.016C216.233,472.756,216.307,472.761,216.381,472.765Z" transform="translate(-216.159 -452.788)" fill="#cf2028"/>
    <path id="Path_3204" data-name="Path 3204" d="M216.159.559l.222-.017Z" transform="translate(-216.159 -0.519)" fill="#cf2028"/>
    <path id="Path_3205" data-name="Path 3205" d="M225.99.012C226.143,0,226.3,0,226.448,0,226.294,0,226.142,0,225.99.012Z" transform="translate(-225.575)" fill="#cf2028"/>
    <path id="Path_3206" data-name="Path 3206" d="M332.015,200.067H325.9a27.012,27.012,0,0,1,0,3.105h6.119a10.051,10.051,0,0,0,0-3.105Z" transform="translate(-321.263 -191.62)" fill="#cf2028"/>
    <path id="Path_3207" data-name="Path 3207" d="M236.835,459.726a10.066,10.066,0,0,0,1.553-.121v-.494A2.343,2.343,0,0,1,236.835,459.726Z" transform="translate(-235.962 -439.726)" fill="#cf2028"/>
    <path id="Path_3208" data-name="Path 3208" d="M238.388.121A10.069,10.069,0,0,0,236.835,0a2.345,2.345,0,0,1,1.553.615Z" transform="translate(-235.962)" fill="#cf2028"/>
    <path id="Path_3209" data-name="Path 3209" d="M226.448,473.419c-.152,0-.305,0-.458-.011C226.142,473.415,226.294,473.419,226.448,473.419Z" transform="translate(-225.575 -453.419)" fill="#cf2028"/>
    <path id="Path_3210" data-name="Path 3210" d="M321.438,113.24v-.855H318.26q.1.417.178.855Z" transform="translate(-313.949 -107.64)" fill="#cf2028"/>
    <path id="Path_3211" data-name="Path 3211" d="M320.289,346.963v-.855h-3.039q-.086.439-.189.855Z" transform="translate(-312.8 -331.494)" fill="#cf2028"/>
  </g>
  <g id="Group_411" data-name="Group 411" transform="translate(9.349 0.012)">
    <path id="Path_3212" data-name="Path 3212" d="M221.424.291l.193-.011Z" transform="translate(-221.424 -0.28)" fill="#fff"/>
    <path id="Path_3213" data-name="Path 3213" d="M221.617,473.15l-.193-.011Z" transform="translate(-221.424 -453.174)" fill="#fff"/>
  </g>
  <g id="Group_412" data-name="Group 412" transform="translate(11.553 0.615)">
    <path id="Path_3214" data-name="Path 3214" d="M273.617,281.442a7.643,7.643,0,0,0,1.98-3.917h-.312v-.855h.5a23.025,23.025,0,0,0,.375-3.061h-2.544Z" transform="translate(-273.617 -262.671)" fill="#f3f4f5"/>
    <path id="Path_3215" data-name="Path 3215" d="M275.285,19.55V18.7h.363a7.89,7.89,0,0,0-2.031-4.13V22.4h2.544a23.337,23.337,0,0,0-.335-2.848Z" transform="translate(-273.617 -14.565)" fill="#f3f4f5"/>
  </g>
  <g id="Group_413" data-name="Group 413">
    <path id="Path_3216" data-name="Path 3216" d="M11.553,11.553H14.1a27.014,27.014,0,0,0,0-3.105H11.553V.615A2.346,2.346,0,0,0,10,0c-.152,0-.305,0-.458.012L9.349.023,9.127.039c-.228.02-.455.046-.679.081V8.447H.121a10.051,10.051,0,0,0,0,3.105H8.448v8.327c.224.035.451.061.679.081l.222.016c.064,0,.128.009.193.011C9.695,20,9.848,20,10,20a2.343,2.343,0,0,0,1.553-.615Z" fill="#da1e37"/>
    <path id="Path_3217" data-name="Path 3217" d="M313.122,113.24h.541q-.08-.437-.178-.855h-.363v.855Z" transform="translate(-299.901 -107.64)" fill="#da1e37"/>
    <path id="Path_3218" data-name="Path 3218" d="M313.122,346.963h.312q.1-.416.189-.855h-.5Z" transform="translate(-299.901 -331.494)" fill="#da1e37"/>
  </g>
  <g id="Group_414" data-name="Group 414" transform="translate(14.491 3.475)">
    <rect id="Rectangle_1742" data-name="Rectangle 1742" width="0.854" height="3.395" transform="translate(0 9.868)" fill="#cf2028"/>
    <rect id="Rectangle_1743" data-name="Rectangle 1743" width="0.854" height="3.395" fill="#cf2028"/>
  </g>
</svg>
