<svg xmlns="http://www.w3.org/2000/svg" width="26" height="30" viewBox="0 0 26 30">
  <g id="headphones" transform="translate(-31)">
    <g id="Group_510" data-name="Group 510" transform="translate(31)">
      <path id="Path_3470" data-name="Path 3470" d="M44,0A13.108,13.108,0,0,0,31,13.184v7.148a2.622,2.622,0,0,0,2.6,2.637h1.016a2.6,2.6,0,0,0,5.051-.879V14.941a2.6,2.6,0,0,0-5.051-.879H33.6a2.555,2.555,0,0,0-.867.151v-1.03a11.268,11.268,0,1,1,22.533,0v1.03a2.555,2.555,0,0,0-.867-.151H53.384a2.6,2.6,0,0,0-5.051.879V22.09a2.622,2.622,0,0,0,2.6,2.637,2.558,2.558,0,0,0,.755-.114A2.609,2.609,0,0,1,49.2,26.484H46.451a2.637,2.637,0,1,0,0,1.758H49.2a4.369,4.369,0,0,0,4.333-4.395v-.879H54.4A2.622,2.622,0,0,0,57,20.332V13.184A13.108,13.108,0,0,0,44,0ZM36.2,14.941a.867.867,0,1,1,1.733,0V22.09a.867.867,0,1,1-1.733,0Zm-2.6.879h.867v5.391H33.6a.874.874,0,0,1-.867-.879V16.7A.874.874,0,0,1,33.6,15.82ZM44,28.242a.879.879,0,1,1,.867-.879A.874.874,0,0,1,44,28.242Zm7.8-6.152a.867.867,0,1,1-1.733,0V14.941a.867.867,0,1,1,1.733,0Zm3.467-1.758a.874.874,0,0,1-.867.879h-.867V15.82H54.4a.874.874,0,0,1,.867.879Z" transform="translate(-31)" fill="#e50019"/>
    </g>
  </g>
</svg>
