<svg xmlns="http://www.w3.org/2000/svg" width="14.2" height="14.2" viewBox="0 0 14.2 14.2">
  <g id="i" transform="translate(0.1 0.1)">
    <g id="Group_428" data-name="Group 428" transform="translate(0 0)">
      <g id="Group_427" data-name="Group 427">
        <path id="Path_3267" data-name="Path 3267" d="M9.625,0H4.375A4.375,4.375,0,0,0,0,4.375v5.25A4.375,4.375,0,0,0,4.375,14h5.25A4.375,4.375,0,0,0,14,9.625V4.375A4.375,4.375,0,0,0,9.625,0Zm3.062,9.625a3.066,3.066,0,0,1-3.062,3.063H4.375A3.066,3.066,0,0,1,1.313,9.625V4.375A3.066,3.066,0,0,1,4.375,1.313h5.25a3.066,3.066,0,0,1,3.062,3.063Z" transform="translate(0 0)" fill="#fff" stroke="#fff" stroke-width="0.2"/>
      </g>
    </g>
    <g id="Group_430" data-name="Group 430" transform="translate(3.5 3.5)">
      <g id="Group_429" data-name="Group 429">
        <path id="Path_3268" data-name="Path 3268" d="M131.5,128a3.5,3.5,0,1,0,3.5,3.5A3.5,3.5,0,0,0,131.5,128Zm0,5.688a2.188,2.188,0,1,1,2.187-2.187A2.191,2.191,0,0,1,131.5,133.688Z" transform="translate(-128 -128)" fill="#fff" stroke="#fff" stroke-width="0.2"/>
      </g>
    </g>
    <g id="Group_432" data-name="Group 432" transform="translate(10.296 2.771)">
      <g id="Group_431" data-name="Group 431">
        <ellipse id="Ellipse_5" data-name="Ellipse 5" cx="0.466" cy="0.466" rx="0.466" ry="0.466" fill="#fff" stroke="#fff" stroke-width="0.2"/>
      </g>
    </g>
  </g>
</svg>
