<svg xmlns="http://www.w3.org/2000/svg" width="37.323" height="40.4" viewBox="0 0 37.323 40.4">
  <g id="legalgrey" transform="translate(-1.748 -0.8)">
    <path id="Path_3341" data-name="Path 3341" d="M46.63,33.032v-1.8l2.746-6.179-.452-.3a4.761,4.761,0,0,1-1.648-3.979,11.067,11.067,0,0,1,1.457-4.769,13.745,13.745,0,0,0,1.769-6.2C50.5,4.419,45.563,4,44.05,4S37.6,4.419,37.6,9.806a13.745,13.745,0,0,0,1.769,6.2,11.067,11.067,0,0,1,1.457,4.769,4.766,4.766,0,0,1-1.648,3.979l-.452.3,2.746,6.179v1.8h-4.6l.806,6.452H50.426l.806-6.452Zm-5.244-5.161-1.068-2.4a6.348,6.348,0,0,0,1.8-4.694,12.214,12.214,0,0,0-1.583-5.325,12.714,12.714,0,0,1-1.643-5.643c0-3.93,3.234-4.516,5.161-4.516s5.161.586,5.161,4.516a12.714,12.714,0,0,1-1.643,5.643,12.214,12.214,0,0,0-1.583,5.325A6.693,6.693,0,0,0,47.1,24.645H42.114v1.29h5.459l-.861,1.935Zm1.147,2.581-.574-1.29h4.179l-.574,1.29Zm2.806,1.29v1.29H42.759v-1.29Zm3.946,6.452H38.813l-.484-3.871H49.77Z" transform="translate(-12.387 -1.065)" fill="#546e7a" stroke="#546e7a" stroke-width="0.4"/>
    <path id="Path_3342" data-name="Path 3342" d="M50.614,10.785a4.344,4.344,0,0,1-.57,3.309l1.074.715a5.586,5.586,0,0,0,.72-4.433C51.054,8.027,48.124,8,48,8V9.29c.021,0,2.121.017,2.614,1.494Z" transform="translate(-16.338 -2.484)" fill="#546e7a" stroke="#546e7a" stroke-width="0.4"/>
    <path id="Path_3343" data-name="Path 3343" d="M17.226,37.452A3.226,3.226,0,1,0,14,34.226,3.229,3.229,0,0,0,17.226,37.452Zm0-5.161a1.935,1.935,0,1,1-1.935,1.935A1.938,1.938,0,0,1,17.226,32.29Z" transform="translate(-4.273 -10.645)" fill="#546e7a" stroke="#546e7a" stroke-width="0.4"/>
    <path id="Path_3344" data-name="Path 3344" d="M21.34,23.581V20.408L23.959,4.694l-.179-.225C23.665,4.326,20.905,1,12.307,1,3.584,1,2.09,4.483,2.031,4.631L1.963,4.8l2.6,15.61v5.036L1.957,37.184l.074.185C2.09,37.517,3.584,41,12.307,41c8.6,0,11.358-3.326,11.472-3.468l.193-.241L21.34,25.445ZM20.148,19.71h-2.88a5.75,5.75,0,0,0-5.606-1.786V6.215A45.607,45.607,0,0,0,22.485,5.69ZM18.609,22.29A5.746,5.746,0,0,0,18.146,21h1.9v1.29Zm1.44,1.29v1.29h-1.44a5.788,5.788,0,0,0,.15-1.29Zm-7.1-4.516a4.516,4.516,0,1,1-4.516,4.516A4.522,4.522,0,0,1,12.952,19.065ZM10.372,6.789c-.215.006-.429.017-.645.017a10.624,10.624,0,0,1-1.962-.185L7.277,4.67c1.491-.409,5.547-1.316,7.924.11a4.213,4.213,0,0,1,.367.246c-2.59.03-4.452-.148-4.486-.152l-.71-.07Zm1.935-4.5c5.291,0,8.172,1.324,9.508,2.208a38,38,0,0,1-4.645.481,2.912,2.912,0,0,0-1.305-1.307C12.423,1.608,6.545,3.53,6.3,3.614L5.731,3.8l.614,2.454A9.851,9.851,0,0,1,3.485,4.749C4.136,3.99,6.269,2.29,12.307,2.29ZM3.531,6.355A11.611,11.611,0,0,0,9.727,8.1c.216,0,.43-.012.645-.017V18.387A5.825,5.825,0,0,0,8.637,19.71H5.757ZM5.856,22.29V21h1.9A5.746,5.746,0,0,0,7.3,22.29ZM7.3,24.871H5.856v-1.29h1.29A5.788,5.788,0,0,0,7.3,24.871ZM3.314,37.028,5.729,26.161h2.03a5.834,5.834,0,0,0,2.619,2.616h-.005l.606,10.9C5.351,39.42,3.675,37.555,3.314,37.028Zm19.255-.1c-.741.674-3.591,2.783-10.262,2.783h-.035l-.581-10.464a5.776,5.776,0,0,0,6.455-3.084h2.03Z" fill="#546e7a" stroke="#546e7a" stroke-width="0.4"/>
  </g>
</svg>
