<svg xmlns="http://www.w3.org/2000/svg" width="20" height="8.888" viewBox="0 0 20 8.888">
  <g id="long-arr" transform="translate(0 -137.052)">
    <path id="Path_3503" data-name="Path 3503" d="M19.884,141.2l-4.444-4.051a.372.372,0,0,0-.405-.058.336.336,0,0,0-.22.336v2.593H.37a.356.356,0,0,0-.37.37v2.222a.356.356,0,0,0,.37.37H14.815v2.593a.349.349,0,0,0,.22.336.361.361,0,0,0,.405-.069l4.444-4.1a.378.378,0,0,0,.116-.278A.366.366,0,0,0,19.884,141.2Z" fill="#78909c"/>
  </g>
</svg>
