<svg xmlns="http://www.w3.org/2000/svg" width="16" height="16" viewBox="0 0 16 16">
  <g id="loupe" transform="translate(-0.96)">
    <g id="Group_425" data-name="Group 425" transform="translate(0.96)">
      <path id="Path_3263" data-name="Path 3263" d="M16.419,12.608,13.776,9.975a7.243,7.243,0,0,0,.8-3.192,6.809,6.809,0,1,0-6.809,6.783,7.314,7.314,0,0,0,3.2-.8L13.616,15.4a1.941,1.941,0,0,0,2.8,0A2.074,2.074,0,0,0,16.419,12.608ZM7.769,11.97a5.187,5.187,0,1,1,5.207-5.187A5.186,5.186,0,0,1,7.769,11.97Z" transform="translate(-0.96)" fill="#fff"/>
    </g>
  </g>
</svg>
