<svg xmlns="http://www.w3.org/2000/svg" width="30.5" height="30.5" viewBox="0 0 30.5 30.5">
  <g id="mail" transform="translate(0.25 0.25)">
    <g id="Group_512" data-name="Group 512" transform="translate(21.358 28.828)">
      <g id="Group_511" data-name="Group 511">
        <path id="Path_3471" data-name="Path 3471" d="M365.105,492H365.1a.586.586,0,0,0,0,1.172h.007a.586.586,0,0,0,0-1.172Z" transform="translate(-364.512 -492)" fill="#e50019" stroke="#e50019" stroke-width="0.5"/>
      </g>
    </g>
    <g id="Group_514" data-name="Group 514">
      <g id="Group_513" data-name="Group 513">
        <path id="Path_3472" data-name="Path 3472" d="M29.827,9.894,25.664,5.761V2.344A2.346,2.346,0,0,0,23.32,0H6.68A2.346,2.346,0,0,0,4.336,2.344V5.731L.172,9.9A.586.586,0,0,0,0,10.31V25.342A4.663,4.663,0,0,0,4.658,30H19.332a.586.586,0,1,0,0-1.172H4.658a3.464,3.464,0,0,1-1.866-.543l1.1-1.1h9a.586.586,0,0,0,0-1.172H5.063l6.989-6.989a4.173,4.173,0,0,1,5.9,0l9.26,9.26a3.464,3.464,0,0,1-1.866.543h-.791a.586.586,0,0,0,0,1.172h.791a4.639,4.639,0,0,0,3.108-1.192.59.59,0,0,0,.058-.05l.022-.024A4.645,4.645,0,0,0,30,25.342V10.31A.586.586,0,0,0,29.827,9.894ZM25.664,7.412l2.92,2.9-2.92,2.92ZM4.336,7.389v5.843L1.415,10.31ZM1.922,27.5a3.468,3.468,0,0,1-.75-2.156V11.725l8.262,8.262Zm16.854-9.3a5.347,5.347,0,0,0-7.553,0l-.961.961L5.508,14.4V2.344A1.173,1.173,0,0,1,6.68,1.172H23.32a1.173,1.173,0,0,1,1.172,1.172V14.4l-4.754,4.754Zm10.052,7.145a3.468,3.468,0,0,1-.75,2.156l-7.512-7.512,8.262-8.262Z" fill="#e50019" stroke="#e50019" stroke-width="0.5"/>
      </g>
    </g>
    <g id="Group_516" data-name="Group 516" transform="translate(8.879 5.391)">
      <g id="Group_515" data-name="Group 515">
        <path id="Path_3473" data-name="Path 3473" d="M158,92h-5.887a.586.586,0,0,0,0,1.172H158A.586.586,0,0,0,158,92Z" transform="translate(-151.529 -92)" fill="#e50019" stroke="#e50019" stroke-width="0.5"/>
      </g>
    </g>
    <g id="Group_518" data-name="Group 518" transform="translate(17.48 5.391)">
      <g id="Group_517" data-name="Group 517">
        <path id="Path_3474" data-name="Path 3474" d="M299.331,92.172a.587.587,0,1,0,.171.414A.593.593,0,0,0,299.331,92.172Z" transform="translate(-298.33 -92)" fill="#e50019" stroke="#e50019" stroke-width="0.5"/>
      </g>
    </g>
    <g id="Group_520" data-name="Group 520" transform="translate(8.879 9.609)">
      <g id="Group_519" data-name="Group 519">
        <path id="Path_3475" data-name="Path 3475" d="M163.186,164H152.115a.586.586,0,0,0,0,1.172h11.071a.586.586,0,0,0,0-1.172Z" transform="translate(-151.529 -164)" fill="#e50019" stroke="#e50019" stroke-width="0.5"/>
      </g>
    </g>
    <g id="Group_522" data-name="Group 522" transform="translate(8.879 13.828)">
      <g id="Group_521" data-name="Group 521">
        <path id="Path_3476" data-name="Path 3476" d="M163.186,236H152.115a.586.586,0,0,0,0,1.172h11.071a.586.586,0,1,0,0-1.172Z" transform="translate(-151.529 -236)" fill="#e50019" stroke="#e50019" stroke-width="0.5"/>
      </g>
    </g>
  </g>
</svg>
