<svg xmlns="http://www.w3.org/2000/svg" width="12" height="10.424" viewBox="0 0 12 10.424">
  <g id="next" transform="translate(0 -33.625)">
    <g id="Group_427" data-name="Group 427" transform="translate(0 38.355)">
      <g id="Group_426" data-name="Group 426" transform="translate(0 0)">
        <path id="Path_3264" data-name="Path 3264" d="M11.421,235.408H.483a.483.483,0,1,0,0,.965H11.421a.483.483,0,1,0,0-.965Z" transform="translate(0 -235.408)" fill="#ed1c24"/>
      </g>
    </g>
    <g id="Group_429" data-name="Group 429" transform="translate(6.306 33.625)">
      <g id="Group_428" data-name="Group 428" transform="translate(0 0)">
        <path id="Path_3265" data-name="Path 3265" d="M274.593,38.5l-4.729-4.729a.483.483,0,0,0-.682.683l4.388,4.388-4.388,4.388a.483.483,0,1,0,.682.682l4.729-4.729A.483.483,0,0,0,274.593,38.5Z" transform="translate(-269.04 -33.625)" fill="#ed1c24"/>
      </g>
    </g>
  </g>
</svg>
