<svg xmlns="http://www.w3.org/2000/svg" width="52.968" height="40" viewBox="0 0 52.968 40">
  <g id="photogrey" transform="translate(0 -6.052)">
    <path id="Path_3394" data-name="Path 3394" d="M6.964,46.052H46a6.946,6.946,0,0,0,6.965-6.908V18.676a6.944,6.944,0,0,0-6.95-6.908h.054V10.693a.942.942,0,0,0-.936-1.069h-3.75A1.07,1.07,0,0,0,40.314,10.7v1.071H38.929a6.955,6.955,0,0,0-6.854-5.715H20.892a6.956,6.956,0,0,0-6.853,5.715H6.964A6.945,6.945,0,0,0,0,18.676V39.144A6.945,6.945,0,0,0,6.964,46.052ZM2.3,18.676A4.639,4.639,0,0,1,6.964,14.07h9.267l.179-2.3a4.647,4.647,0,0,1,4.483-3.411H32.075a4.646,4.646,0,0,1,4.484,3.411l.179,2.3H46a4.639,4.639,0,0,1,4.663,4.606V39.144A4.64,4.64,0,0,1,46,43.75H6.964A4.64,4.64,0,0,1,2.3,39.144V18.676ZM19.54,13.552H33.267a.87.87,0,0,0,0-1.74H19.54a.87.87,0,0,0,0,1.74Zm6.945,28.206a13,13,0,1,0-13-13A13.013,13.013,0,0,0,26.485,41.758Zm0-23.821A10.823,10.823,0,1,1,15.662,28.761,10.834,10.834,0,0,1,26.485,17.937ZM19.635,29.485a7.824,7.824,0,0,1,7.816-7.816.725.725,0,1,0,0-1.451,9.277,9.277,0,0,0-9.266,9.266.725.725,0,1,0,1.45,0Z" transform="translate(0 0)" fill="#546e7a"/>
  </g>
</svg>
