<svg xmlns="http://www.w3.org/2000/svg" width="15.16" height="20" viewBox="0 0 15.16 20">
  <g id="red-pin" transform="translate(-61.9)">
    <path id="Path_3270" data-name="Path 3270" d="M68.134,18.828H65.966a.586.586,0,0,0,0,1.172H73a.586.586,0,0,0,0-1.172H70.83a39.046,39.046,0,0,0,2.82-3.387c2.266-3.066,3.41-5.7,3.41-7.824A7.631,7.631,0,0,0,69.482,0h0A7.631,7.631,0,0,0,61.9,7.617c0,2.125,1.148,4.758,3.41,7.824a39.7,39.7,0,0,0,2.824,3.387ZM69.482,1.172a6.459,6.459,0,0,1,6.41,6.445c0,1.844-1.1,4.309-3.184,7.129a38.509,38.509,0,0,1-3.227,3.8,38.509,38.509,0,0,1-3.227-3.8c-2.082-2.82-3.184-5.285-3.184-7.129a6.459,6.459,0,0,1,6.41-6.445Z" fill="#e50019"/>
    <path id="Path_3271" data-name="Path 3271" d="M131.547,65.273a5.273,5.273,0,1,0-5.273,5.273,5.281,5.281,0,0,0,5.273-5.273Zm-3.523,3.691a3.975,3.975,0,0,1-1.75.41,4.152,4.152,0,1,1,1.75-.41Z" transform="translate(-56.791 -57.656)" fill="#e50019"/>
  </g>
</svg>
