<svg xmlns="http://www.w3.org/2000/svg" width="14" height="8" viewBox="0 0 14 8">
  <g id="vwgrey" transform="translate(40 -109.924)">
    <g id="Group_540" data-name="Group 540" transform="translate(-40 109.924)">
      <path id="Path_3505" data-name="Path 3505" d="M13.875,117.06a6.25,6.25,0,0,0-1.39-1.611c-1.173-1.09-1.015-.913.4-2.8.86-1.148,1.2-1.849,1.1-2.149s-.735-.21-.735-.21l-2.1.012a.48.48,0,0,0-.272.048.593.593,0,0,0-.186.226,12.213,12.213,0,0,1-.778,1.644c-.937,1.594-1.313,1.678-1.466,1.579-.356-.23-.267-.927-.267-1.421,0-1.545.234-2.189-.456-2.356a3.606,3.606,0,0,0-.983-.1,4.538,4.538,0,0,0-1.747.179c-.24.117-.424.379-.312.394a.943.943,0,0,1,.621.313,2.033,2.033,0,0,1,.208.954s.124,1.818-.29,2.045c-.284.155-.674-.161-1.509-1.608a13.5,13.5,0,0,1-.752-1.56.622.622,0,0,0-.173-.234.872.872,0,0,0-.324-.131l-2,.012s-.3.009-.41.139-.008.357-.008.357a22.832,22.832,0,0,0,3.339,5.519,4.8,4.8,0,0,0,3.473,1.584h.837a.7.7,0,0,0,.382-.167.611.611,0,0,0,.115-.368s-.017-1.124.5-1.29,1.173,1.087,1.873,1.568a1.323,1.323,0,0,0,.93.284l1.87-.026S14.339,117.83,13.875,117.06Z" transform="translate(0 -109.924)" fill="#546e7a"/>
    </g>
  </g>
</svg>
